lab3/sim/fir.vcd
$date
   Sun Oct 22 07:55:25 2023
$end
$version
  2022.1
$end
$timescale
  1ps
$end
$scope module fir_tb $end
$var wire 1 ! awready $end
$var wire 1 " wready $end
$var reg 1 # awvalid $end
$var reg 12 $ awaddr [11:0] $end
$var reg 1 % wvalid $end
$var reg 32 & wdata [31:0] $end
$var wire 1 ' arready $end
$var reg 1 ( rready $end
$var reg 1 ) arvalid $end
$var reg 12 * araddr [11:0] $end
$var wire 1 + rvalid $end
$var wire 32 , rdata [31:0] $end
$var reg 1 - ss_tvalid $end
$var reg 32 . ss_tdata [31:0] $end
$var reg 1 / ss_tlast $end
$var wire 1 0 ss_tready $end
$var reg 1 1 sm_tready $end
$var wire 1 2 sm_tvalid $end
$var wire 32 3 sm_tdata [31:0] $end
$var wire 1 4 sm_tlast $end
$var reg 1 5 axis_clk $end
$var reg 1 6 axis_rst_n $end
$var wire 4 7 tap_WE [3:0] $end
$var wire 1 8 tap_EN $end
$var wire 32 9 tap_Di [31:0] $end
$var wire 12 : tap_A [11:0] $end
$var wire 32 ; tap_Do [31:0] $end
$var wire 4 < data_WE [3:0] $end
$var wire 1 = data_EN $end
$var wire 32 > data_Di [31:0] $end
$var wire 12 ? data_A [11:0] $end
$var wire 32 @ data_Do [31:0] $end
$var reg 32 A data_length [31:0] $end
$var integer 32 B Din [31:0] $end
$var integer 32 C golden [31:0] $end
$var integer 32 D input_data [31:0] $end
$var integer 32 E golden_data [31:0] $end
$var integer 32 F m [31:0] $end
$var integer 32 G i [31:0] $end
$var integer 32 H k [31:0] $end
$var reg 1 I error $end
$var reg 1 J error_coef $end
$var integer 32 K timeout [31:0] $end
$scope module fir_DUT $end
$var wire 1 ! awready $end
$var wire 1 L awvalid $end
$var wire 12 M awaddr [11:0] $end
$var wire 1 " wready $end
$var wire 1 N wvalid $end
$var wire 32 O wdata [31:0] $end
$var wire 1 ' arready $end
$var wire 1 P arvalid $end
$var wire 12 Q araddr [11:0] $end
$var reg 1 R rvalid $end
$var reg 32 S rdata [31:0] $end
$var wire 1 T rready $end
$var wire 1 U ss_tvalid $end
$var wire 32 V ss_tdata [31:0] $end
$var wire 1 W ss_tlast $end
$var reg 1 X ss_tready $end
$var wire 1 Y sm_tready $end
$var wire 1 2 sm_tvalid $end
$var wire 32 3 sm_tdata [31:0] $end
$var wire 1 4 sm_tlast $end
$var wire 4 7 tap_WE [3:0] $end
$var wire 1 8 tap_EN $end
$var wire 32 9 tap_Di [31:0] $end
$var wire 12 : tap_A [11:0] $end
$var wire 32 ; tap_Do [31:0] $end
$var wire 4 < data_WE [3:0] $end
$var wire 1 = data_EN $end
$var wire 32 > data_Di [31:0] $end
$var wire 12 ? data_A [11:0] $end
$var wire 32 @ data_Do [31:0] $end
$var wire 1 Z axis_clk $end
$var wire 1 [ axis_rst_n $end
$var reg 3 \ cur_state [2:0] $end
$var reg 3 ] next_state [2:0] $end
$var reg 4 ^ cnt [3:0] $end
$var reg 12 _ addr_r [11:0] $end
$var reg 12 ` addr_w [11:0] $end
$var reg 1 a task_r $end
$var reg 1 b task_w $end
$var reg 1 c rcnt $end
$var reg 4 d ss_idx [3:0] $end
$var reg 1 e ap_start $end
$var reg 1 f ap_done $end
$var reg 1 g ap_idle $end
$var reg 32 h len [31:0] $end
$var wire 1 i tap_ram_write $end
$var wire 1 j data_ram_write $end
$var wire 1 k tap_ram_read $end
$var reg 12 l tap_ram_addr [11:0] $end
$var reg 12 m data_ram_addr [11:0] $end
$var reg 32 n data_ram_in [31:0] $end
$var wire 1 o tap_axi_acess $end
$var wire 32 p x_i [31:0] $end
$var wire 32 q h_i [31:0] $end
$var wire 32 r product_i [31:0] $end
$var reg 32 s acc [31:0] $end
$var reg 32 t y_buffer [31:0] $end
$var reg 1 u y_done $end
$var reg 32 v icnt [31:0] $end
$upscope $end
$scope module tap_RAM $end
$var wire 1 w CLK $end
$var wire 4 7 WE [3:0] $end
$var wire 1 8 EN $end
$var wire 32 9 Di [31:0] $end
$var wire 32 ; Do [31:0] $end
$var wire 12 : A [11:0] $end
$var reg 12 x r_A [11:0] $end
$upscope $end
$scope module data_RAM $end
$var wire 1 y CLK $end
$var wire 4 < WE [3:0] $end
$var wire 1 = EN $end
$var wire 32 > Di [31:0] $end
$var wire 32 @ Do [31:0] $end
$var wire 12 ? A [11:0] $end
$var reg 12 z r_A [11:0] $end
$upscope $end
$scope task config_write $end
$var reg 12 { addr [11:0] $end
$var reg 32 | data [31:0] $end
$upscope $end
$scope task config_read_check $end
$var reg 12 } addr [11:0] $end
$var reg 32 ~ exp_data [31:0] $end
$var reg 32 !! mask [31:0] $end
$upscope $end
$scope task ss $end
$var reg 32 "! in1 [31:0] $end
$upscope $end
$scope task sm $end
$var reg 32 #! in2 [31:0] $end
$var reg 32 $! pcnt [31:0] $end
$upscope $end
$upscope $end
$enddefinitions $end
#0
$dumpvars
1!
bx !!
0"
b1 "!
0#
bx #!
bx $
bx $!
0%
bx &
1'
x(
x)
bx *
0+
b0 ,
1-
b1 .
0/
00
11
02
b0 3
z4
05
06
b0 7
18
bx 9
b0 :
bx ;
b0 <
1=
b1 >
b101000 ?
bx @
b1001011000 A
b11111111111111111011000111100000 B
b11111111111111111011000111100001 C
b1 D
b1 E
b1001011000 F
b0 G
bx H
0I
0J
b11110100001001000000 K
0L
bx M
0N
bx O
xP
bx Q
0R
b0 S
xT
1U
b1 V
0W
0X
1Y
0Z
0[
b0 \
b0 ]
b0 ^
b0 _
b0 `
0a
0b
0c
b1010 d
0e
0f
1g
b0 h
0i
0j
0k
b0 l
b101000 m
b1 n
0o
bz p
bz q
bx r
b0 s
b0 t
0u
b0 v
0w
bx x
0y
bx z
b10000 {
b1001011000 |
bx }
bx ~
$end
#5000
1#
b10000 $
1%
b1001011000 &
15
b1001011000 9
bx ;
bx @
b11110100001000111111 K
1L
b10000 M
1N
b1001011000 O
1Z
b0 \
b0 ^
b0 _
b0 `
0a
0b
0c
b1010 d
0e
0f
1g
b0 h
0i
b0 s
b0 t
0u
b0 v
1w
b0 x
1y
b101000 z
#10000
05
0Z
0w
0y
#15000
0!
1"
15
16
b11110100001000111110 K
1Z
1[
b0 \
b0 ^
b10000 `
1b
0c
1g
0i
b0 l
1w
b0 x
1y
b101000 z
#20000
05
0Z
0w
0y
#25000
1!
0"
0#
0%
15
b0 H
b11110100001000111101 K
0L
0N
0R
b0 S
1Z
b0 \
b0 ]
b0 ^
b10000 `
0b
0c
0e
1g
b1001011000 h
0i
b0 l
1w
b0 x
1y
b101000 z
b100000 {
b0 |
#30000
05
0Z
0w
0y
#35000
1#
b100000 $
1%
b0 &
15
b0 9
b11110100001000111100 K
1L
b100000 M
1N
b0 O
1Z
b0 \
b0 ^
0c
0i
1w
b0 x
1y
b101000 z
#40000
05
0Z
0w
0y
#45000
0!
1"
15
b1111 7
b11110100001000111011 K
1Z
b0 \
b0 ^
b100000 `
1b
0c
1i
b0 l
1o
1w
b0 x
1y
b101000 z
#50000
05
0Z
0w
0y
#55000
1!
0"
0#
0%
15
b0 7
b0 :
b0 ;
b1 H
b11110100001000111010 K
0L
0N
0R
b0 S
1Z
b0 \
b0 ^
b100000 `
0b
0c
0e
b1001011000 h
0i
b0 l
0o
bx r
1w
b0 x
1y
b101000 z
b100100 {
b11111111111111111111111111110110 |
#60000
05
0Z
0w
0y
#65000
1#
b100100 $
1%
b11111111111111111111111111110110 &
15
b11111111111111111111111111110110 9
b11110100001000111001 K
1L
b100100 M
1N
b11111111111111111111111111110110 O
1Z
b0 \
b0 ^
0c
0i
1w
b0 x
1y
b101000 z
#70000
05
0Z
0w
0y
#75000
0!
1"
15
b1111 7
b100 :
b11110100001000111000 K
1Z
b0 \
b0 ^
b100100 `
1b
0c
1i
b100 l
1o
1w
b0 x
1y
b101000 z
#80000
05
0Z
0w
0y
#85000
1!
0"
0#
0%
15
b0 7
b0 :
b11111111111111111111111111110110 ;
b10 H
b11110100001000110111 K
0L
0N
0R
b0 S
1Z
b0 \
b0 ^
b100100 `
0b
0c
0e
b1001011000 h
0i
b0 l
0o
bx r
1w
b100 x
1y
b101000 z
b101000 {
b11111111111111111111111111110111 |
#90000
05
0Z
0w
0y
#95000
1#
b101000 $
1%
b11111111111111111111111111110111 &
15
b11111111111111111111111111110111 9
b0 ;
b11110100001000110110 K
1L
b101000 M
1N
b11111111111111111111111111110111 O
0R
b0 S
1Z
b0 \
b0 ^
0c
0i
bx r
1w
b0 x
1y
b101000 z
#100000
05
0Z
0w
0y
#105000
0!
1"
15
b1111 7
b1000 :
b11110100001000110101 K
1Z
b0 \
b0 ^
b101000 `
1b
0c
1i
b1000 l
1o
1w
b0 x
1y
b101000 z
#110000
05
0Z
0w
0y
#115000
1!
0"
0#
0%
15
b0 7
b0 :
b11111111111111111111111111110111 ;
b11 H
b11110100001000110100 K
0L
0N
0R
b0 S
1Z
b0 \
b0 ^
b101000 `
0b
0c
0e
b1001011000 h
0i
b0 l
0o
bx r
1w
b1000 x
1y
b101000 z
b101100 {
b10111 |
#120000
05
0Z
0w
0y
#125000
1#
b101100 $
1%
b10111 &
15
b10111 9
b0 ;
b11110100001000110011 K
1L
b101100 M
1N
b10111 O
0R
b0 S
1Z
b0 \
b0 ^
0c
0i
bx r
1w
b0 x
1y
b101000 z
#130000
05
0Z
0w
0y
#135000
0!
1"
15
b1111 7
b1100 :
b11110100001000110010 K
1Z
b0 \
b0 ^
b101100 `
1b
0c
1i
b1100 l
1o
1w
b0 x
1y
b101000 z
#140000
05
0Z
0w
0y
#145000
1!
0"
0#
0%
15
b0 7
b0 :
b10111 ;
b100 H
b11110100001000110001 K
0L
0N
0R
b0 S
1Z
b0 \
b0 ^
b101100 `
0b
0c
0e
b1001011000 h
0i
b0 l
0o
bx r
1w
b1100 x
1y
b101000 z
b110000 {
b111000 |
#150000
05
0Z
0w
0y
#155000
1#
b110000 $
1%
b111000 &
15
b111000 9
b0 ;
b11110100001000110000 K
1L
b110000 M
1N
b111000 O
0R
b0 S
1Z
b0 \
b0 ^
0c
0i
bx r
1w
b0 x
1y
b101000 z
#160000
05
0Z
0w
0y
#165000
0!
1"
15
b1111 7
b10000 :
b11110100001000101111 K
1Z
b0 \
b0 ^
b110000 `
1b
0c
1i
b10000 l
1o
1w
b0 x
1y
b101000 z
#170000
05
0Z
0w
0y
#175000
1!
0"
0#
0%
15
b0 7
b0 :
b111000 ;
b101 H
b11110100001000101110 K
0L
0N
0R
b0 S
1Z
b0 \
b0 ^
b110000 `
0b
0c
0e
b1001011000 h
0i
b0 l
0o
bx r
1w
b10000 x
1y
b101000 z
b110100 {
b111111 |
#180000
05
0Z
0w
0y
#185000
1#
b110100 $
1%
b111111 &
15
b111111 9
b0 ;
b11110100001000101101 K
1L
b110100 M
1N
b111111 O
0R
b0 S
1Z
b0 \
b0 ^
0c
0i
bx r
1w
b0 x
1y
b101000 z
#190000
05
0Z
0w
0y
#195000
0!
1"
15
b1111 7
b10100 :
b11110100001000101100 K
1Z
b0 \
b0 ^
b110100 `
1b
0c
1i
b10100 l
1o
1w
b0 x
1y
b101000 z
#200000
05
0Z
0w
0y
#205000
1!
0"
0#
0%
15
b0 7
b0 :
b111111 ;
b110 H
b11110100001000101011 K
0L
0N
0R
b0 S
1Z
b0 \
b0 ^
b110100 `
0b
0c
0e
b1001011000 h
0i
b0 l
0o
bx r
1w
b10100 x
1y
b101000 z
b111000 {
b111000 |
#210000
05
0Z
0w
0y
#215000
1#
b111000 $
1%
b111000 &
15
b111000 9
b0 ;
b11110100001000101010 K
1L
b111000 M
1N
b111000 O
0R
b0 S
1Z
b0 \
b0 ^
0c
0i
bx r
1w
b0 x
1y
b101000 z
#220000
05
0Z
0w
0y
#225000
0!
1"
15
b1111 7
b11000 :
b11110100001000101001 K
1Z
b0 \
b0 ^
b111000 `
1b
0c
1i
b11000 l
1o
1w
b0 x
1y
b101000 z
#230000
05
0Z
0w
0y
#235000
1!
0"
0#
0%
15
b0 7
b0 :
b111000 ;
b111 H
b11110100001000101000 K
0L
0N
0R
b0 S
1Z
b0 \
b0 ^
b111000 `
0b
0c
0e
b1001011000 h
0i
b0 l
0o
bx r
1w
b11000 x
1y
b101000 z
b111100 {
b10111 |
#240000
05
0Z
0w
0y
#245000
1#
b111100 $
1%
b10111 &
15
b10111 9
b0 ;
b11110100001000100111 K
1L
b111100 M
1N
b10111 O
0R
b0 S
1Z
b0 \
b0 ^
0c
0i
bx r
1w
b0 x
1y
b101000 z
#250000
05
0Z
0w
0y
#255000
0!
1"
15
b1111 7
b11100 :
b11110100001000100110 K
1Z
b0 \
b0 ^
b111100 `
1b
0c
1i
b11100 l
1o
1w
b0 x
1y
b101000 z
#260000
05
0Z
0w
0y
#265000
1!
0"
0#
0%
15
b0 7
b0 :
b10111 ;
b1000 H
b11110100001000100101 K
0L
0N
0R
b0 S
1Z
b0 \
b0 ^
b111100 `
0b
0c
0e
b1001011000 h
0i
b0 l
0o
bx r
1w
b11100 x
1y
b101000 z
b1000000 {
b11111111111111111111111111110111 |
#270000
05
0Z
0w
0y
#275000
1#
b1000000 $
1%
b11111111111111111111111111110111 &
15
b11111111111111111111111111110111 9
b0 ;
b11110100001000100100 K
1L
b1000000 M
1N
b11111111111111111111111111110111 O
0R
b0 S
1Z
b0 \
b0 ^
0c
0i
bx r
1w
b0 x
1y
b101000 z
#280000
05
0Z
0w
0y
#285000
0!
1"
15
b1111 7
b100000 :
b11110100001000100011 K
1Z
b0 \
b0 ^
b1000000 `
1b
0c
1i
b100000 l
1o
1w
b0 x
1y
b101000 z
#290000
05
0Z
0w
0y
#295000
1!
0"
0#
0%
15
b0 7
b0 :
b11111111111111111111111111110111 ;
b1001 H
b11110100001000100010 K
0L
0N
0R
b0 S
1Z
b0 \
b0 ^
b1000000 `
0b
0c
0e
b1001011000 h
0i
b0 l
0o
bx r
1w
b100000 x
1y
b101000 z
b1000100 {
b11111111111111111111111111110110 |
#300000
05
0Z
0w
0y
#305000
1#
b1000100 $
1%
b11111111111111111111111111110110 &
15
b11111111111111111111111111110110 9
b0 ;
b11110100001000100001 K
1L
b1000100 M
1N
b11111111111111111111111111110110 O
0R
b0 S
1Z
b0 \
b0 ^
0c
0i
bx r
1w
b0 x
1y
b101000 z
#310000
05
0Z
0w
0y
#315000
0!
1"
15
b1111 7
b100100 :
b11110100001000100000 K
1Z
b0 \
b0 ^
b1000100 `
1b
0c
1i
b100100 l
1o
1w
b0 x
1y
b101000 z
#320000
05
0Z
0w
0y
#325000
1!
0"
0#
0%
15
b0 7
b0 :
b11111111111111111111111111110110 ;
b1010 H
b11110100001000011111 K
0L
0N
0R
b0 S
1Z
b0 \
b0 ^
b1000100 `
0b
0c
0e
b1001011000 h
0i
b0 l
0o
bx r
1w
b100100 x
1y
b101000 z
b1001000 {
b0 |
#330000
05
0Z
0w
0y
#335000
1#
b1001000 $
1%
b0 &
15
b0 9
b0 ;
b11110100001000011110 K
1L
b1001000 M
1N
b0 O
0R
b0 S
1Z
b0 \
b0 ^
0c
0i
bx r
1w
b0 x
1y
b101000 z
#340000
05
0Z
0w
0y
#345000
0!
1"
15
b1111 7
b101000 :
b11110100001000011101 K
1Z
b0 \
b0 ^
b1001000 `
1b
0c
1i
b101000 l
1o
1w
b0 x
1y
b101000 z
#350000
05
0Z
0w
0y
#355000
1!
b11111111111111111111111111111111 !!
0"
0#
0%
0)
15
b0 7
b0 :
b0 ;
b0 H
b11110100001000011100 K
0L
0N
0P
1Z
b0 \
b0 ^
b1001000 `
0b
0c
0e
b1001011000 h
0i
b0 l
0o
1w
b101000 x
1y
b101000 z
b100000 }
b0 ~
#360000
05
0Z
0w
0y
#365000
1(
1)
b100000 *
15
b0 ;
b11110100001000011011 K
1P
b100000 Q
1T
1Z
b0 \
b0 ^
0c
1w
b0 x
1y
b101000 z
#370000
05
0Z
0w
0y
#375000
0'
15
b11110100001000011010 K
0R
b0 S
1Z
b0 \
b0 ^
b100000 _
1a
0c
1k
b0 l
1o
1w
b0 x
1y
b101000 z
#380000
05
0Z
0w
0y
#385000
1+
15
b11110100001000011001 K
1R
b0 S
1Z
b0 \
b0 ^
1c
1w
b0 x
1y
b101000 z
#390000
05
0Z
0w
0y
#395000
b11111111111111111111111111111111 !!
1'
0)
0+
15
b1 H
b11110100001000011000 K
0P
0R
b0 S
1Z
b0 \
b0 ^
0a
1c
0k
b0 l
0o
1w
b0 x
1y
b101000 z
b100100 }
b11111111111111111111111111110110 ~
#400000
05
0Z
0w
0y
#405000
1(
1)
b100100 *
15
b11110100001000010111 K
1P
b100100 Q
0R
b0 S
1Z
b0 \
b0 ^
0c
1w
b0 x
1y
b101000 z
#410000
05
0Z
0w
0y
#415000
0'
15
b100 :
b11110100001000010110 K
0R
b0 S
1Z
b0 \
b0 ^
b100100 _
1a
0c
1k
b100 l
1o
1w
b0 x
1y
b101000 z
#420000
05
0Z
0w
0y
#425000
1+
b11111111111111111111111111110110 ,
15
b11111111111111111111111111110110 ;
b11110100001000010101 K
1R
b11111111111111111111111111110110 S
1Z
b0 \
b0 ^
1c
bx r
1w
b100 x
1y
b101000 z
#430000
05
0Z
0w
0y
#435000
b11111111111111111111111111111111 !!
1'
0)
0+
b0 ,
15
b0 :
b10 H
b11110100001000010100 K
0P
0R
b0 S
1Z
b0 \
b0 ^
0a
1c
0k
b0 l
0o
1w
b100 x
1y
b101000 z
b101000 }
b11111111111111111111111111110111 ~
#440000
05
0Z
0w
0y
#445000
1(
1)
b101000 *
15
b0 ;
b11110100001000010011 K
1P
b101000 Q
0R
b0 S
1Z
b0 \
b0 ^
0c
bx r
1w
b0 x
1y
b101000 z
#450000
05
0Z
0w
0y
#455000
0'
15
b1000 :
b11110100001000010010 K
0R
b0 S
1Z
b0 \
b0 ^
b101000 _
1a
0c
1k
b1000 l
1o
1w
b0 x
1y
b101000 z
#460000
05
0Z
0w
0y
#465000
1+
b11111111111111111111111111110111 ,
15
b11111111111111111111111111110111 ;
b11110100001000010001 K
1R
b11111111111111111111111111110111 S
1Z
b0 \
b0 ^
1c
bx r
1w
b1000 x
1y
b101000 z
#470000
05
0Z
0w
0y
#475000
b11111111111111111111111111111111 !!
1'
0)
0+
b0 ,
15
b0 :
b11 H
b11110100001000010000 K
0P
0R
b0 S
1Z
b0 \
b0 ^
0a
1c
0k
b0 l
0o
1w
b1000 x
1y
b101000 z
b101100 }
b10111 ~
#480000
05
0Z
0w
0y
#485000
1(
1)
b101100 *
15
b0 ;
b11110100001000001111 K
1P
b101100 Q
0R
b0 S
1Z
b0 \
b0 ^
0c
bx r
1w
b0 x
1y
b101000 z
#490000
05
0Z
0w
0y
#495000
0'
15
b1100 :
b11110100001000001110 K
0R
b0 S
1Z
b0 \
b0 ^
b101100 _
1a
0c
1k
b1100 l
1o
1w
b0 x
1y
b101000 z
#500000
05
0Z
0w
0y
#505000
1+
b10111 ,
15
b10111 ;
b11110100001000001101 K
1R
b10111 S
1Z
b0 \
b0 ^
1c
bx r
1w
b1100 x
1y
b101000 z
#510000
05
0Z
0w
0y
#515000
b11111111111111111111111111111111 !!
1'
0)
0+
b0 ,
15
b0 :
b100 H
b11110100001000001100 K
0P
0R
b0 S
1Z
b0 \
b0 ^
0a
1c
0k
b0 l
0o
1w
b1100 x
1y
b101000 z
b110000 }
b111000 ~
#520000
05
0Z
0w
0y
#525000
1(
1)
b110000 *
15
b0 ;
b11110100001000001011 K
1P
b110000 Q
0R
b0 S
1Z
b0 \
b0 ^
0c
bx r
1w
b0 x
1y
b101000 z
#530000
05
0Z
0w
0y
#535000
0'
15
b10000 :
b11110100001000001010 K
0R
b0 S
1Z
b0 \
b0 ^
b110000 _
1a
0c
1k
b10000 l
1o
1w
b0 x
1y
b101000 z
#540000
05
0Z
0w
0y
#545000
1+
b111000 ,
15
b111000 ;
b11110100001000001001 K
1R
b111000 S
1Z
b0 \
b0 ^
1c
bx r
1w
b10000 x
1y
b101000 z
#550000
05
0Z
0w
0y
#555000
b11111111111111111111111111111111 !!
1'
0)
0+
b0 ,
15
b0 :
b101 H
b11110100001000001000 K
0P
0R
b0 S
1Z
b0 \
b0 ^
0a
1c
0k
b0 l
0o
1w
b10000 x
1y
b101000 z
b110100 }
b111111 ~
#560000
05
0Z
0w
0y
#565000
1(
1)
b110100 *
15
b0 ;
b11110100001000000111 K
1P
b110100 Q
0R
b0 S
1Z
b0 \
b0 ^
0c
bx r
1w
b0 x
1y
b101000 z
#570000
05
0Z
0w
0y
#575000
0'
15
b10100 :
b11110100001000000110 K
0R
b0 S
1Z
b0 \
b0 ^
b110100 _
1a
0c
1k
b10100 l
1o
1w
b0 x
1y
b101000 z
#580000
05
0Z
0w
0y
#585000
1+
b111111 ,
15
b111111 ;
b11110100001000000101 K
1R
b111111 S
1Z
b0 \
b0 ^
1c
bx r
1w
b10100 x
1y
b101000 z
#590000
05
0Z
0w
0y
#595000
b11111111111111111111111111111111 !!
1'
0)
0+
b0 ,
15
b0 :
b110 H
b11110100001000000100 K
0P
0R
b0 S
1Z
b0 \
b0 ^
0a
1c
0k
b0 l
0o
1w
b10100 x
1y
b101000 z
b111000 }
b111000 ~
#600000
05
0Z
0w
0y
#605000
1(
1)
b111000 *
15
b0 ;
b11110100001000000011 K
1P
b111000 Q
0R
b0 S
1Z
b0 \
b0 ^
0c
bx r
1w
b0 x
1y
b101000 z
#610000
05
0Z
0w
0y
#615000
0'
15
b11000 :
b11110100001000000010 K
0R
b0 S
1Z
b0 \
b0 ^
b111000 _
1a
0c
1k
b11000 l
1o
1w
b0 x
1y
b101000 z
#620000
05
0Z
0w
0y
#625000
1+
b111000 ,
15
b111000 ;
b11110100001000000001 K
1R
b111000 S
1Z
b0 \
b0 ^
1c
bx r
1w
b11000 x
1y
b101000 z
#630000
05
0Z
0w
0y
#635000
b11111111111111111111111111111111 !!
1'
0)
0+
b0 ,
15
b0 :
b111 H
b11110100001000000000 K
0P
0R
b0 S
1Z
b0 \
b0 ^
0a
1c
0k
b0 l
0o
1w
b11000 x
1y
b101000 z
b111100 }
b10111 ~
#640000
05
0Z
0w
0y
#645000
1(
1)
b111100 *
15
b0 ;
b11110100000111111111 K
1P
b111100 Q
0R
b0 S
1Z
b0 \
b0 ^
0c
bx r
1w
b0 x
1y
b101000 z
#650000
05
0Z
0w
0y
#655000
0'
15
b11100 :
b11110100000111111110 K
0R
b0 S
1Z
b0 \
b0 ^
b111100 _
1a
0c
1k
b11100 l
1o
1w
b0 x
1y
b101000 z
#660000
05
0Z
0w
0y
#665000
1+
b10111 ,
15
b10111 ;
b11110100000111111101 K
1R
b10111 S
1Z
b0 \
b0 ^
1c
bx r
1w
b11100 x
1y
b101000 z
#670000
05
0Z
0w
0y
#675000
b11111111111111111111111111111111 !!
1'
0)
0+
b0 ,
15
b0 :
b1000 H
b11110100000111111100 K
0P
0R
b0 S
1Z
b0 \
b0 ^
0a
1c
0k
b0 l
0o
1w
b11100 x
1y
b101000 z
b1000000 }
b11111111111111111111111111110111 ~
#680000
05
0Z
0w
0y
#685000
1(
1)
b1000000 *
15
b0 ;
b11110100000111111011 K
1P
b1000000 Q
0R
b0 S
1Z
b0 \
b0 ^
0c
bx r
1w
b0 x
1y
b101000 z
#690000
05
0Z
0w
0y
#695000
0'
15
b100000 :
b11110100000111111010 K
0R
b0 S
1Z
b0 \
b0 ^
b1000000 _
1a
0c
1k
b100000 l
1o
1w
b0 x
1y
b101000 z
#700000
05
0Z
0w
0y
#705000
1+
b11111111111111111111111111110111 ,
15
b11111111111111111111111111110111 ;
b11110100000111111001 K
1R
b11111111111111111111111111110111 S
1Z
b0 \
b0 ^
1c
bx r
1w
b100000 x
1y
b101000 z
#710000
05
0Z
0w
0y
#715000
b11111111111111111111111111111111 !!
1'
0)
0+
b0 ,
15
b0 :
b1001 H
b11110100000111111000 K
0P
0R
b0 S
1Z
b0 \
b0 ^
0a
1c
0k
b0 l
0o
1w
b100000 x
1y
b101000 z
b1000100 }
b11111111111111111111111111110110 ~
#720000
05
0Z
0w
0y
#725000
1(
1)
b1000100 *
15
b0 ;
b11110100000111110111 K
1P
b1000100 Q
0R
b0 S
1Z
b0 \
b0 ^
0c
bx r
1w
b0 x
1y
b101000 z
#730000
05
0Z
0w
0y
#735000
0'
15
b100100 :
b11110100000111110110 K
0R
b0 S
1Z
b0 \
b0 ^
b1000100 _
1a
0c
1k
b100100 l
1o
1w
b0 x
1y
b101000 z
#740000
05
0Z
0w
0y
#745000
1+
b11111111111111111111111111110110 ,
15
b11111111111111111111111111110110 ;
b11110100000111110101 K
1R
b11111111111111111111111111110110 S
1Z
b0 \
b0 ^
1c
bx r
1w
b100100 x
1y
b101000 z
#750000
05
0Z
0w
0y
#755000
b11111111111111111111111111111111 !!
1'
0)
0+
b0 ,
15
b0 :
b1010 H
b11110100000111110100 K
0P
0R
b0 S
1Z
b0 \
b0 ^
0a
1c
0k
b0 l
0o
1w
b100100 x
1y
b101000 z
b1001000 }
b0 ~
#760000
05
0Z
0w
0y
#765000
1(
1)
b1001000 *
15
b0 ;
b11110100000111110011 K
1P
b1001000 Q
0R
b0 S
1Z
b0 \
b0 ^
0c
bx r
1w
b0 x
1y
b101000 z
#770000
05
0Z
0w
0y
#775000
0'
15
b101000 :
b11110100000111110010 K
0R
b0 S
1Z
b0 \
b0 ^
b1001000 _
1a
0c
1k
b101000 l
1o
1w
b0 x
1y
b101000 z
#780000
05
0Z
0w
0y
#785000
1+
15
b0 ;
b11110100000111110001 K
1R
b0 S
1Z
b0 \
b0 ^
1c
1w
b101000 x
1y
b101000 z
#790000
05
0Z
0w
0y
#795000
1'
0)
0+
15
b0 :
b1011 H
b11110100000111110000 K
0P
0R
b0 S
1Z
b0 \
b0 ^
0a
1c
0k
b0 l
0o
1w
b101000 x
1y
b101000 z
#800000
05
0Z
0w
0y
#805000
0#
0%
15
b0 ;
b11110100000111101111 K
0R
b0 S
1Z
b0 \
b0 ^
0c
1w
b0 x
1y
b101000 z
b0 {
b1 |
#810000
05
0Z
0w
0y
#815000
1#
b0 $
1%
b1 &
15
b1 9
b11110100000111101110 K
1L
b0 M
1N
b1 O
1Z
b0 \
b0 ^
0c
0i
1w
b0 x
1y
b101000 z
#820000
05
0Z
0w
0y
#825000
0!
1"
15
b11110100000111101101 K
1Z
b0 \
b0 ^
b0 `
1b
0c
0i
b0 l
1w
b0 x
1y
b101000 z
#830000
05
0Z
0w
0y
#835000
1!
0"
15
b11110100000111101100 K
0R
b0 S
1Z
b0 \
b1 ]
b0 ^
b0 `
0b
0c
1e
b1001011000 h
0i
b0 l
1w
b0 x
1y
b101000 z
#840000
05
0Z
0w
0y
#845000
0!
1"
15
b1111 <
b0 >
b0 ?
b11110100000111101011 K
0R
b0 S
0X
1Z
b1 \
b1 ]
b0 ^
b0 `
1b
0c
0e
0g
0i
b0 l
b0 m
b0 n
1w
b0 x
1y
b101000 z
#850000
05
0Z
0w
0y
#855000
1!
0"
15
b100 ?
b0 @
b11110100000111101010 K
0X
1Z
b1 \
b1 ]
b1 ^
b0 `
0b
0c
0e
b1001011000 h
0i
b0 l
b100 m
b0 n
b0 r
1w
b0 x
1y
b0 z
#860000
05
0Z
0w
0y
#865000
0!
1"
15
b1000 ?
b0 @
b11110100000111101001 K
0X
1Z
b1 \
b1 ]
b10 ^
b0 `
1b
0c
0i
b0 l
b1000 m
b0 n
1w
b0 x
1y
b100 z
#870000
05
0Z
0w
0y
#875000
1!
0"
15
b1100 ?
b0 @
b11110100000111101000 K
0X
1Z
b1 \
b1 ]
b11 ^
b0 `
0b
0c
0e
b1001011000 h
0i
b0 l
b1100 m
b0 n
1w
b0 x
1y
b1000 z
#880000
05
0Z
0w
0y
#885000
0!
1"
15
b10000 ?
b0 @
b11110100000111100111 K
0X
1Z
b1 \
b1 ]
b100 ^
b0 `
1b
0c
0i
b0 l
b10000 m
b0 n
1w
b0 x
1y
b1100 z
#890000
05
0Z
0w
0y
#895000
1!
0"
15
b10100 ?
b0 @
b11110100000111100110 K
0X
1Z
b1 \
b1 ]
b101 ^
b0 `
0b
0c
0e
b1001011000 h
0i
b0 l
b10100 m
b0 n
1w
b0 x
1y
b10000 z
#900000
05
0Z
0w
0y
#905000
0!
1"
15
b11000 ?
b0 @
b11110100000111100101 K
0X
1Z
b1 \
b1 ]
b110 ^
b0 `
1b
0c
0i
b0 l
b11000 m
b0 n
1w
b0 x
1y
b10100 z
#910000
05
0Z
0w
0y
#915000
1!
0"
15
b11100 ?
b0 @
b11110100000111100100 K
0X
1Z
b1 \
b1 ]
b111 ^
b0 `
0b
0c
0e
b1001011000 h
0i
b0 l
b11100 m
b0 n
1w
b0 x
1y
b11000 z
#920000
05
0Z
0w
0y
#925000
0!
1"
15
b100000 ?
b0 @
b11110100000111100011 K
0X
1Z
b1 \
b1 ]
b1000 ^
b0 `
1b
0c
0i
b0 l
b100000 m
b0 n
1w
b0 x
1y
b11100 z
#930000
05
0Z
0w
0y
#935000
1!
0"
15
b100100 ?
b0 @
b11110100000111100010 K
0X
1Z
b1 \
b1 ]
b1001 ^
b0 `
0b
0c
0e
b1001011000 h
0i
b0 l
b100100 m
b0 n
1w
b0 x
1y
b100000 z
#940000
05
0Z
0w
0y
#945000
0!
1"
10
15
b1111 <
b1 >
b101000 ?
b0 @
b11110100000111100001 K
1X
1Z
b1 \
b11 ]
b1010 ^
b0 `
1b
0c
0i
1j
b0 l
b101000 m
b1 n
1w
b0 x
1y
b100100 z
#950000
05
0Z
0w
0y
